{
  "files": {
    "main.css": "/static/css/main.9acc0aea.css",
    "main.js": "/static/js/main.b27307a2.js",
    "static/media/megamenu.png": "/static/media/megamenu.0f61e04882df54d5233d.png",
    "static/media/landing-image.png": "/static/media/landing-image.86a9afa9015835441220.png",
    "index.html": "/index.html",
    "main.9acc0aea.css.map": "/static/css/main.9acc0aea.css.map",
    "main.b27307a2.js.map": "/static/js/main.b27307a2.js.map"
  },
  "entrypoints": [
    "static/css/main.9acc0aea.css",
    "static/js/main.b27307a2.js"
  ]
}